…
- les axes avec les graduations (en rouge)
- le label en x  (en bleu)
- les niveaux de la variable facteur

Les instructions de base afin de produire un graphique en barres sont :


```r
# Importation du jeu de données
(zooplankton <- read( file = "zooplankton", package = "data.io", lang = "fr"))
```

```
# # A tibble: 1,262 x 20
#      ecd  area perimeter feret major minor  mean  mode   min   max std_dev
#    <dbl> <dbl>     <dbl> <dbl> <dbl> <dbl> <dbl> <dbl> <dbl> <dbl>   <dbl>
#  1 0.770 0.465      4.45 1.32  1.16  0.509 0.363 0.036 0.004 0.908   0.231
#  2 0.700 0.385      2.32 0.728 0.713 0.688 0.361 0.492 0.024 0.676   0.183
#  3 0.815 0.521      4.15 1.33  1.11  0.598 0.308 0.032 0.008 0.696   0.204
#  4 0.785 0.484      4.44 1.78  1.56  0.394 0.332 0.036 0.004 0.728   0.218
#  5 0.361 0.103      1.71 0.739 0.694 0.188 0.153 0.016 0.008 0.452   0.110
#  6 0.832 0.544      5.27 1.66  1.36  0.511 0.371 0.02  0.004 0.844   0.268
#  7 1.23  1.20      15.7  3.92  1.37  1.11  0.217 0.012 0.004 0.784   0.214
#  8 0.620 0.302      3.98 1.19  1.04  0.370 0.316 0.012 0.004 0.756   0.246
#  9 1.19  1.12      15.3  3.85  1.34  1.06  0.176 0.012 0.004 0.728   0.172
# 10 1.04  0.856      7.60 1.89  1.66  0.656 0.404 0.044 0.004 0.88    0.264
# # ... with 1,252 more rows, and 9 more variables: range <dbl>, size <dbl>,
# #   aspect <dbl>, elongation <dbl>, compactness <dbl>, transparency <dbl>,
# #   circularity <dbl>, density <dbl>, class <fct>
```

```r
# Réduction du jeu de données 
(copepoda <- filter(zooplankton, class %in% c("Calanoid", "Cyclopoid",  "Harpacticoid",  "Poecilostomatoid")))
```

```
# # A tibble: 535 x 20
#      ecd  area perimeter feret major minor  mean  mode   min   max std_dev
#    <dbl> <dbl>     <dbl> <dbl> <dbl> <dbl> <dbl> <dbl> <dbl> <dbl>   <dbl>
#  1 0.770 0.465      4.45 1.32  1.16  0.509 0.363 0.036 0.004 0.908   0.231
#  2 0.815 0.521      4.15 1.33  1.11  0.598 0.308 0.032 0.008 0.696   0.204
#  3 0.785 0.484      4.44 1.78  1.56  0.394 0.332 0.036 0.004 0.728   0.218
#  4 0.361 0.103      1.71 0.739 0.694 0.188 0.153 0.016 0.008 0.452   0.110
#  5 0.832 0.544      5.27 1.66  1.36  0.511 0.371 0.02  0.004 0.844   0.268
#  6 1.23  1.20      15.7  3.92  1.37  1.11  0.217 0.012 0.004 0.784   0.214
#  7 0.620 0.302      3.98 1.19  1.04  0.370 0.316 0.012 0.004 0.756   0.246
#  8 1.19  1.12      15.3  3.85  1.34  1.06  0.176 0.012 0.004 0.728   0.172
#  9 1.04  0.856      7.60 1.89  1.66  0.656 0.404 0.044 0.004 0.88    0.264
# 10 0.725 0.412      7.14 1.90  0.802 0.655 0.209 0.008 0.004 0.732   0.202
# # ... with 525 more rows, and 9 more variables: range <dbl>, size <dbl>,
# #   aspect <dbl>, elongation <dbl>, compactness <dbl>, transparency <dbl>,
# #   circularity <dbl>, density <dbl>, class <fct>
```
…
La fonction `chart()` requiert comme argument le jeu de données (`dataframe`, `copepoda`), ainsi que la formule à employer ` ~ XVAR (class)`. Pour réaliser un graphique en barres, vous devez utiliser ensuite la fonction `geom_bar()`.

#### Dénombrement par plusieurs facteurs


```r
#importation des données biometry
(biometry <- read("biometry", package = "BioDataScience", lang= "fr"))
```

```
# # A tibble: 395 x 7
#    gender day_birth  weight height wrist year_measure   age
#    <fct>  <date>      <dbl>  <dbl> <dbl>        <dbl> <dbl>
#  1 M      1995-03-11     69    182  15           2013    18
#  2 M      1998-04-03     74    190  16           2013    15
#  3 M      1967-04-04     83    185  17.5         2013    46
#  4 M      1994-02-10     60    175  15           2013    19
#  5 W      1990-12-02     48    167  14           2013    23
#  6 W      1994-07-15     52    179  14           2013    19
#  7 W      1971-03-03     72    167  15.5         2013    42
#  8 W      1997-06-24     74    180  16           2013    16
#  9 M      1972-10-26    110    189  19           2013    41
# 10 M      1945-03-15     82    160  18           2013    68
# # ... with 385 more rows
```
…
<div class="figure" style="text-align: center">
<img src="04-Visualisation-III_files/figure-html/unnamed-chunk-27-1.svg" alt=" Boite de dispersion portant sur la croissance de dents de cochon d'Inde en fonction de la supplémentation administrée." width="672" />
<p class="caption">(\#fig:unnamed-chunk-27) Boite de dispersion portant sur la croissance de dents de cochon d'Inde en fonction de la supplémentation administrée.</p>
</div>


```r
#Importation du jeu de données ToothGrowth
(toothgrowth <- read("ToothGrowth", package = "datasets", lang  = "fr"))
```

```
# # A tibble: 60 x 3
#      len supp   dose
#    <dbl> <fct> <dbl>
#  1   4.2 VC      0.5
#  2  11.5 VC      0.5
#  3   7.3 VC      0.5
#  4   5.8 VC      0.5
#  5   6.4 VC      0.5
#  6  10   VC      0.5
#  7  11.2 VC      0.5
#  8  11.2 VC      0.5
#  9   5.2 VC      0.5
# 10   7   VC      0.5
# # ... with 50 more rows
```
…
Lorsque vous souhaitez représenter plusieurs graphiques sur une seule fenêtre graphique plusieurs fonctions sont à votre disposition. Il faut tout d'abord distinguer deux types de multi-graphiques. Soit il s'agit d'un seul graphique que vous souhaitez subdiviser par rapport à une ou des variables facteurs. Soit il s'agit de graphiques indépendants que vous souhaitez représenter sur la même fenêtre graphique. Dans le premier cas, la fonction `facet_grid()` du package `ggplot2` peut être employé. Dans le second cas, la fonction `plot_grid()` du package `cowplot` est l'une des alternatives possibles.

### Facets

L'une des règles les plus importantes que vous devez impérativement garder à l'esprit lors de la réalisation de vos graphiques est *la simplicité*. Plus votre graphique va contenir d'information au plus il sera compliqué à décoder par un collaborateur. 


```r
# Importation des données
(ChickWeight <- read(file = "ChickWeight", package = "datasets", lang = "fr"))
```

```
# # A tibble: 578 x 4
#    weight  Time Chick Diet 
#     <dbl> <dbl> <ord> <fct>
#  1     42     0 1     1    
#  2     51     2 1     1    
#  3     59     4 1     1    
#  4     64     6 1     1    
#  5     76     8 1     1    
#  6     93    10 1     1    
#  7    106    12 1     1    
#  8    125    14 1     1    
#  9    149    16 1     1    
# 10    171    18 1     1    
# # ... with 568 more rows
```
…
- http://www.sthda.com/english/rpkgs/ggpubr/reference/ggarrange.html 


## Différents systèmes graphiques

Depuis le début, l'ensemble des graphiques que nous vous avons proposé utilise la fonction `chart()` du package `chart`. Cependant, il ne s'agit pas du seul outil permettant de réaliser des graphiques dans R. 


```r
# Importation des données
(urchin <- read("urchin_bio", package = "data.io"))
```

```
# # A tibble: 421 x 19
#    origin diameter1 diameter2 height buoyant_weight weight solid_parts
#    <fct>      <dbl>     <dbl>  <dbl>          <dbl>  <dbl>       <dbl>
#  1 Fishe…       9.9      10.2    5               NA  0.522       0.478
#  2 Fishe…      10.5      10.6    5.7             NA  0.642       0.589
#  3 Fishe…      10.8      10.8    5.2             NA  0.734       0.677
#  4 Fishe…       9.6       9.3    4.6             NA  0.370       0.344
#  5 Fishe…      10.4      10.7    4.8             NA  0.610       0.559
#  6 Fishe…      10.5      11.1    5               NA  0.610       0.551
#  7 Fishe…      11        11      5.2             NA  0.672       0.605
#  8 Fishe…      11.1      11.2    5.7             NA  0.703       0.628
#  9 Fishe…       9.4       9.2    4.6             NA  0.413       0.375
# 10 Fishe…      10.1       9.5    4.7             NA  0.449       0.398
# # ... with 411 more rows, and 12 more variables: integuments <dbl>,
# #   dry_integuments <dbl>, digestive_tract <dbl>,
# #   dry_digestive_tract <dbl>, gonads <dbl>, dry_gonads <dbl>,
# #   skeleton <dbl>, lantern <dbl>, test <dbl>, spines <dbl>,
# #   maturity <int>, sex <fct>
```
…
