…
Si ce n'est déjà fait, vous devez avoir réaliser le module 1 ainsi que les modules liés à la visualisation des données.

## Importation des données

Afin de réaliser l'analyse de vos résultats vous devez commencer par importer correctement vos données. Il existe une multitude de fonction pour réaliser l'importation de divers formats de fichiers. La fonction `read()` du package `data.io` est l'une d'entre-elles. 

Durant les précédents modules, vous avez employé cette fonction pour importer vos jeux de données. Reprennons un exemple pour détailler cette fonction.


```r
(biometry <- read("biometry", package = "BioDataScience", lang = "fr"))
```

```
# # A tibble: 395 x 7
#    gender day_birth  weight height wrist year_measure   age
#    <fct>  <date>      <dbl>  <dbl> <dbl>        <dbl> <dbl>
#  1 M      1995-03-11     69    182  15           2013    18
#  2 M      1998-04-03     74    190  16           2013    15
#  3 M      1967-04-04     83    185  17.5         2013    46
#  4 M      1994-02-10     60    175  15           2013    19
#  5 W      1990-12-02     48    167  14           2013    23
#  6 W      1994-07-15     52    179  14           2013    19
#  7 W      1971-03-03     72    167  15.5         2013    42
#  8 W      1997-06-24     74    180  16           2013    16
#  9 M      1972-10-26    110    189  19           2013    41
# 10 M      1945-03-15     82    160  18           2013    68
# # ... with 385 more rows
```
…
La fonction read() permet d'importer des données sur votre disque, depuis un URL ou encore depuis un package. Elle unifie donc 3 méthodes bien distinctes.

- Quels est le format de vos données ? 

Les données peuvent être sauvegardées avec différents formats comme csv, xlsx ou encore txt. Une multitude de formats existe avec des avantages et inconvénients que nous ne developperons pas dans cette section.

La fonction **read()** supporte néanmoins 32 formats de fichier différents en utilisant en interne des fonctions provenant de différents packages dans R. Elle permet donc d'unifier ces différents outils d'importations des données :


```r
getOption("read_write")
```

```
# # A tibble: 32 x 5
#    type  read_fun      read_header    write_fun      comment              
#    <chr> <chr>         <chr>          <chr>          <chr>                
#  1 csv   readr::read_… data.io::hrea… readr::write_… comma separated valu…
#  2 csv2  readr::read_… data.io::hrea… <NA>           semicolon separated …
#  3 xlcsv readr::read_… data.io::hrea… readr::write_… write a CSV file mor…
#  4 tsv   readr::read_… data.io::hrea… readr::write_… tab separated values 
#  5 fwf   readr::read_… data.io::hrea… <NA>           fixed width file     
#  6 log   readr::read_… <NA>           <NA>           standard log file    
#  7 rds   readr::read_… <NA>           readr::write_… R data file (no comp…
#  8 txt   readr::read_… <NA>           readr::write_… text file (as length…
#  9 raw   readr::read_… <NA>           <NA>           binary file (read as…
# 10 ssv   readr::read_… data.io::hrea… <NA>           space separated valu…
# # ... with 22 more rows
```
…
## Type de variables

Lors de la réalisation de graphiques dans les modules précédents vous avez compris que toutes les variables ne se valait pas dans R. 


```r
(biometry <- read("biometry", package = "BioDataScience", lang = "fr"))
```

```
# # A tibble: 395 x 7
#    gender day_birth  weight height wrist year_measure   age
#    <fct>  <date>      <dbl>  <dbl> <dbl>        <dbl> <dbl>
#  1 M      1995-03-11     69    182  15           2013    18
#  2 M      1998-04-03     74    190  16           2013    15
#  3 M      1967-04-04     83    185  17.5         2013    46
#  4 M      1994-02-10     60    175  15           2013    19
#  5 W      1990-12-02     48    167  14           2013    23
#  6 W      1994-07-15     52    179  14           2013    19
#  7 W      1971-03-03     72    167  15.5         2013    42
#  8 W      1997-06-24     74    180  16           2013    16
#  9 M      1972-10-26    110    189  19           2013    41
# 10 M      1945-03-15     82    160  18           2013    68
# # ... with 385 more rows
```
…
<div class="figure" style="text-align: center">
<img src="05-Importation-Transformation_files/figure-html/unnamed-chunk-31-1.svg" alt="a) Nuage de points montrant la variation de la hauteur du test des oursins en fonction du poids du squelette. b) Tableau de données résumé de la croissance des oursins suite à l'application d'un filtre sur l'orgine des oursins et sur les tailles des individus." width="672" />
<p class="caption">(\#fig:unnamed-chunk-31)a) Nuage de points montrant la variation de la hauteur du test des oursins en fonction du poids du squelette. b) Tableau de données résumé de la croissance des oursins suite à l'application d'un filtre sur l'orgine des oursins et sur les tailles des individus.</p>
</div>


Avec des variables facteurs composé des nombreux niveaux comme on peut le retrouver dans le jeu de données **zooplankton** du package **BioDataScience**, vous pouvez être amené à en sélectionner plusieurs niveaux au sein de cette variable.


```r
(zooplankton <- read("zooplankton", package = "data.io", lang  = "fr"))
```

```
# # A tibble: 1,262 x 20
#      ecd  area perimeter feret major minor  mean  mode   min   max std_dev
#    <dbl> <dbl>     <dbl> <dbl> <dbl> <dbl> <dbl> <dbl> <dbl> <dbl>   <dbl>
#  1 0.770 0.465      4.45 1.32  1.16  0.509 0.363 0.036 0.004 0.908   0.231
#  2 0.700 0.385      2.32 0.728 0.713 0.688 0.361 0.492 0.024 0.676   0.183
#  3 0.815 0.521      4.15 1.33  1.11  0.598 0.308 0.032 0.008 0.696   0.204
#  4 0.785 0.484      4.44 1.78  1.56  0.394 0.332 0.036 0.004 0.728   0.218
#  5 0.361 0.103      1.71 0.739 0.694 0.188 0.153 0.016 0.008 0.452   0.110
#  6 0.832 0.544      5.27 1.66  1.36  0.511 0.371 0.02  0.004 0.844   0.268
#  7 1.23  1.20      15.7  3.92  1.37  1.11  0.217 0.012 0.004 0.784   0.214
#  8 0.620 0.302      3.98 1.19  1.04  0.370 0.316 0.012 0.004 0.756   0.246
#  9 1.19  1.12      15.3  3.85  1.34  1.06  0.176 0.012 0.004 0.728   0.172
# 10 1.04  0.856      7.60 1.89  1.66  0.656 0.404 0.044 0.004 0.88    0.264
# # ... with 1,252 more rows, and 9 more variables: range <dbl>, size <dbl>,
# #   aspect <dbl>, elongation <dbl>, compactness <dbl>, transparency <dbl>,
# #   circularity <dbl>, density <dbl>, class <fct>
```
…
