…
Comme des individus à bec croisé à gauche et d'autres à bec croisé à droite se rencontrent dans la même population, Groth (1992) a comptabilisé les deux types dans un échantillon aléatoire et représentatif de plus de 3000 oiseaux. Il a obtenu le tableau suivant\ :


```r
(crossbill <- tibble(cb = c(rep("left", 1895), rep("right", 1752))))
```

```
# # A tibble: 3,647 x 1
#    cb   
#    <chr>
#  1 left 
#  2 left 
#  3 left 
#  4 left 
#  5 left 
#  6 left 
#  7 left 
#  8 left 
#  9 left 
# 10 left 
# # … with 3,637 more rows
```
…
Prenons le jeu de données concernant le test d'une molécule potentiellement anti-cancéreuse, le timolol\ :


```r
(timolol <- tibble(
  traitement = c(
    rep("timolol", 160), rep("placebo", 147)),
  patient = c(
    rep("sain", 44), rep("malade", 116), 
    rep("sain", 19), rep("malade", 128))
  ))
```

```
# # A tibble: 307 x 2
#    traitement patient
#    <chr>      <chr>  
#  1 timolol    sain   
#  2 timolol    sain   
#  3 timolol    sain   
#  4 timolol    sain   
#  5 timolol    sain   
#  6 timolol    sain   
#  7 timolol    sain   
#  8 timolol    sain   
#  9 timolol    sain   
# 10 timolol    sain   
# # … with 297 more rows
```
…
Rappelons nous que nous avons déjà utilisé une métrique avec l'imc et les différentes classes proposées par l'OMS.

Prenons le jeu de données `biometry` du package `BioDataScience`  comme exemple.


```r
biometry <- read("biometry", package = "BioDataScience", lang = "FR") %>.%
  select(., height, weight)

biometry
```

```
# # A tibble: 395 x 2
#    height weight
#     <dbl>  <dbl>
#  1    182     69
#  2    190     74
#  3    185     83
#  4    175     60
#  5    167     48
#  6    179     52
#  7    167     72
#  8    180     74
#  9    189    110
# 10    160     82
# # … with 385 more rows
```
…
biometry
```

```
# # A tibble: 395 x 4
#    height weight   bmi bmi_schedule
#     <dbl>  <dbl> <dbl> <ord>       
#  1    182     69  20.8 poids normal
#  2    190     74  20.5 poids normal
#  3    185     83  24.3 poids normal
#  4    175     60  19.6 poids normal
#  5    167     48  17.2 sous-poids  
#  6    179     52  16.2 sous-poids  
#  7    167     72  25.8 surpoids    
#  8    180     74  22.8 poids normal
#  9    189    110  30.8 obèse       
# 10    160     82  32.0 obèse       
# # … with 385 more rows
```
…
