…
\BeginKnitrBlock{note}<div class="note">Le style de SciViews-R accepte à la fois la syntaxe de base et celle de tidyverse, avec une préférence pour cette dernière lorsque la lisibilité des instructions est primordiale. De plus, le style formule est également abondamment utilisé dès qu'il s'agit de réaliser un graphique ou un modèle statistique (les deux étant d'ailleurs souvent associés).</div>\EndKnitrBlock{note}

Bien. Admettons maintenant que nous voulons représenter la forme (ratio d'aspect, rapport largeur / longueur) des œufs en fonction de leur taille sur un graphique (en utilisant les variables `aspect` et `area`) présents dans notre échantillon de zooplancton. Deux niveaux de la variable `class` les contiennent\ : `Oeuf_allongé` et `Oeuf_rond`. Nous voulons donc filtrer les données du tableau `zoo` pour ne garder que ces deux catégories, et éventuellement, nous voulons aussi restreindre le tableau aux trois variables `aspect`, `area` et `class` puisque nous n'avons pas besoin des autres variables. En R de base cela peut se faire en une seule étape à l'aide de l'opérateur d'indiçage `[]` comme nous avons vu plus haut.


```r
zoo2 <- zoo[zoo$class == "Oeuf_allongé" | zoo$class == "Oeuf_rond",
  c("aspect", "area", "class")]
zoo2
```

```
# # A tibble: 99 x 3
#    aspect  area class       
#     <dbl> <dbl> <fct>       
#  1  0.965 0.385 Oeuf_rond   
#  2  0.976 6.04  Oeuf_rond   
#  3  0.964 0.271 Oeuf_rond   
#  4  0.911 0.259 Oeuf_rond   
#  5  0.950 0.322 Oeuf_rond   
#  6  0.959 0.335 Oeuf_rond   
#  7  0.976 0.343 Oeuf_rond   
#  8  0.975 1.11  Oeuf_rond   
#  9  0.449 0.495 Oeuf_allongé
# 10  0.987 2.02  Oeuf_rond   
# # … with 89 more rows
```

En tidyverse, les deux opérations (filtrage des lignes et sélection des variables en colonnes) restent deux opération successives distinctes dans le code. Notez au passage que nous repassons à l'opérateur de chaînage `%>.%` de SciViews-R que nous avons l'habitude d'utiliser à la place de l'opérateur correspondant de tidyverse `%>%`.


```r
zoo %>.%
  filter(., class == "Oeuf_allongé" | class == "Oeuf_rond") %>.%
  select(., aspect, area, class) ->
  zoo2
zoo2
```

```
# # A tibble: 99 x 3
#    aspect  area class       
#     <dbl> <dbl> <fct>       
#  1  0.965 0.385 Oeuf_rond   
#  2  0.976 6.04  Oeuf_rond   
#  3  0.964 0.271 Oeuf_rond   
#  4  0.911 0.259 Oeuf_rond   
#  5  0.950 0.322 Oeuf_rond   
#  6  0.959 0.335 Oeuf_rond   
#  7  0.976 0.343 Oeuf_rond   
#  8  0.975 1.11  Oeuf_rond   
#  9  0.449 0.495 Oeuf_allongé
# 10  0.987 2.02  Oeuf_rond   
# # … with 89 more rows
```
…
