4.5 Différents moteurs graphiques | Science des données biologiques, UMONS
…
Depuis le début, l’ensemble des graphiques que nous vous avons proposés utilise la fonction chart() du package chart. Cependant, il ne s’agit pas de la seule fonction permettant de réaliser des graphiques dans R, loin de là. En fait, chart est tout récent et a été développé pour homogénéiser autant que possible les graphiques issus de trois moteurs graphiques différents : ggplot2, lattice et les graphiques base. La fonction chart() a d’autres avantages également :

Un thème par défaut qui est le plus proche possible d’un rendu typique d’une publication scientifique.

La possibilité d’utiliser l’interface formule avec ggplot2.

La cohérence des objets graphiques obtenus qui peuvent tous êtres combinés en une figure composée, même si ils sont produits avec des moteurs graphiques différents.

Un libellé automatique des axes et autres éléments du graphique en fonction des attributs label et units des variables (pour l’instant, seulement les graphiques de type ggplot2).

# Importation des données
(urchin <- read("urchin_bio", package = "data.io", lang = "FR"))

# # A tibble: 421 x 19
#    origin diameter1 diameter2 height buoyant_weight weight solid_parts
#    <fct>      <dbl>     <dbl>  <dbl>          <dbl>  <dbl>       <dbl>
#  1 Pêche…       9.9      10.2    5               NA  0.522       0.478
#  2 Pêche…      10.5      10.6    5.7             NA  0.642       0.589
#  3 Pêche…      10.8      10.8    5.2             NA  0.734       0.677
#  4 Pêche…       9.6       9.3    4.6             NA  0.370       0.344
#  5 Pêche…      10.4      10.7    4.8             NA  0.610       0.559
#  6 Pêche…      10.5      11.1    5               NA  0.610       0.551
#  7 Pêche…      11        11      5.2             NA  0.672       0.605
#  8 Pêche…      11.1      11.2    5.7             NA  0.703       0.628
#  9 Pêche…       9.4       9.2    4.6             NA  0.413       0.375
# 10 Pêche…      10.1       9.5    4.7             NA  0.449       0.398
# # … with 411 more rows, and 12 more variables: integuments <dbl>,
# #   dry_integuments <dbl>, digestive_tract <dbl>,
# #   dry_digestive_tract <dbl>, gonads <dbl>, dry_gonads <dbl>,
# #   skeleton <dbl>, lantern <dbl>, test <dbl>, spines <dbl>,
# #   maturity <int>, sex <fct>
…
