11.5 Effet aléatoire | Science des données biologiques
…
Jusqu’à présent, nous avons considéré que nous échantillonnons toutes les modalités qui nous intéressent pour les variables facteurs explicatives. Il se peut que les modalités soient trop nombreuses et que nous ne puissions n’en étudier qu’une petite fraction. Nous avons deux possibilités.

Soit nous choisissons aléatoirement quelques modalités, et nous les étudions systématiquement pour les différentes modalités de l’autre variable. Nous nous ramenons à un modèle à facteurs fixes mais nous ne pouvons donner une réponse que pour les modalités échantillonnées (restriction de la population statistique étudiée).

Soit, nous échantillonnons aléatoirement dans la population un nombre restreint de modalités.

Considérez un plan d’expérience relativement classique où différents items sont comparés dans une sélection au hasard de réalisations. En agronomie, il peut s’agir de comparer différentes variétés d’une céréale cultivées dans quelques fermes. Si nous ne sommes intéressés que par ces fermes-là, alors les effets sont fixes, pas de problèmes. Par contre, si nous sommes intéressés par la production de cette céréale dans une région donnée, les fermes représentent seulement un échantillon de l’ensemble des fermes qui s’y trouvent. Autrement dit, toutes les modalités possibles ne sont pas reprises dans l’expérience. Dans ce cas, nous parlerons d’un effet aléatoire pour l’effet ‘ferme’.

Prenons un exemple concret. Dans une analyse réalisée en 1972 par Davies and Goldsmith, six lots différents de pénicilline provenant d’une production de ce médicament sont comparés afin d’estimer la variabilité de l’efficacité antibiotique en fonction du lot de production. La mesure consiste à incuber une bactérie Bacillus subtilis dans une série de boites de Pétri (variable plate). Dans chaque boite, un volume de solution des six lots de pénicilline (variable sample) sont placés à espacement réguler. L’effet de l’antibiotique est mesurée via le diamètre de la zone de non croissance de la bactérie autour du point d’injection (variable diameter).

pen <- read("Penicillin", package = "lme4")
pen

# # A tibble: 144 x 3
#    diameter plate sample
#       <dbl> <fct> <fct> 
#  1       27 a     A     
#  2       23 a     B     
#  3       26 a     C     
#  4       23 a     D     
#  5       23 a     E     
#  6       21 a     F     
#  7       27 b     A     
#  8       23 b     B     
#  9       26 b     C     
# 10       23 b     D     
# # … with 134 more rows
…
La première ligne .sig01 est relative à l’écart type plate avec un intervalle de confiance qui va de 0,63 à 1,18, et la seconde ligne .sig02 est relative à l’écart type de sample dont l’intervalle de confiance s’étale de 1,10 à 3,56. Dans les deux cas, zéro n’est pas compris dans l’intervalle de confiance et nous rejettons donc \(H_0\). A noter que si nous n’avions pas rejeté l’un des deux, nous aurions pu décider d’ajuster un modèle plus simple à un seul facteur aléatoire y ~ (1 | fact) en laisant tomber l’autre facteur dans le modèle simplifié.

L’analyse des résidus (indispensable) n’est pas reproduite ici. Elle reste la même que plus haut.

11.5.2 Modèle à mesures répétées

Un autre type de modèle aléatoire courant est le modèle à mesures répétées. Celui-ci se produit lorsque nous mesurons plusieurs fois les mêmes individus, par exemple, successivement dans le temps. Considérons l’expérience suivante. Dix huit volontaires (variable Subject) ont subi une privation de sommeil (restreint à 3h par 24h) pendant 9 jours (variable Days). Au jour zéro, ils ont eu un sommeil normal. Leur temps de réaction est mesuré en ms à l’aide d’un test standardisé.

sleep <- read("sleepstudy", package = "lme4")
sleep

# # A tibble: 180 x 3
#    Reaction  Days Subject
#       <dbl> <dbl> <fct>  
#  1     250.     0 308    
#  2     259.     1 308    
#  3     251.     2 308    
#  4     321.     3 308    
#  5     357.     4 308    
#  6     415.     5 308    
#  7     382.     6 308    
#  8     290.     7 308    
#  9     431.     8 308    
# 10     466.     9 308    
# # … with 170 more rows
…
