4.4 Figures composées | Science des données biologiques, UMONS
…
Soit il s’agit d’un seul graphique que vous souhaitez subdiviser par rapport à une ou des variables facteurs.

Soit il s’agit de graphiques indépendants que vous souhaitez assembler dans une même figure parce que les données ont un lien entre elles, ou parce que ces graphiques sont complémentaires pour comprendre les données.

Dans le premier cas, les fonctions facet_XXX() comme facet_grid() peuvent être employées. Dans le second cas, la fonction combine_charts() est l’une des alternatives possibles.

4.4.1 Facettes

L’une des règles les plus importantes que vous devez impérativement garder à l’esprit lors de la réalisation de vos graphiques est la simplicité. Plus votre graphique va contenir d’information au plus il sera compliqué à décoder par vos lecteurs.

# Importation de données relative à la croissance de poulets
(chick_weight <- read("ChickWeight", package = "datasets"))

# # A tibble: 578 x 4
#    weight  Time Chick Diet 
#     <dbl> <dbl> <ord> <fct>
#  1     42     0 1     1    
#  2     51     2 1     1    
#  3     59     4 1     1    
#  4     64     6 1     1    
#  5     76     8 1     1    
#  6     93    10 1     1    
#  7    106    12 1     1    
#  8    125    14 1     1    
#  9    149    16 1     1    
# 10    171    18 1     1    
# # ... with 568 more rows
…
