Science des données biologiques, UMONS
…
Outre les barres elles-mêmes, prêtez toujours attention aux éléments suivants du graphique (ici mis en évidence en couleurs) :

les axes avec les graduations (en rouge)

les niveaux de la variable facteur (en rouge également)

le label des axes (en bleu)

Les instructions dans R pour produire un graphique en barres à l’aide de la fonction chart() sont :

# Importation du jeu de données
(zooplankton <- read("zooplankton", package = "data.io", lang = "FR"))

# # A tibble: 1,262 x 20
#      ecd  area perimeter feret major minor  mean  mode   min   max std_dev
#    <dbl> <dbl>     <dbl> <dbl> <dbl> <dbl> <dbl> <dbl> <dbl> <dbl>   <dbl>
#  1 0.770 0.465      4.45 1.32  1.16  0.509 0.363 0.036 0.004 0.908   0.231
#  2 0.700 0.385      2.32 0.728 0.713 0.688 0.361 0.492 0.024 0.676   0.183
#  3 0.815 0.521      4.15 1.33  1.11  0.598 0.308 0.032 0.008 0.696   0.204
#  4 0.785 0.484      4.44 1.78  1.56  0.394 0.332 0.036 0.004 0.728   0.218
#  5 0.361 0.103      1.71 0.739 0.694 0.188 0.153 0.016 0.008 0.452   0.110
#  6 0.832 0.544      5.27 1.66  1.36  0.511 0.371 0.02  0.004 0.844   0.268
#  7 1.23  1.20      15.7  3.92  1.37  1.11  0.217 0.012 0.004 0.784   0.214
#  8 0.620 0.302      3.98 1.19  1.04  0.370 0.316 0.012 0.004 0.756   0.246
#  9 1.19  1.12      15.3  3.85  1.34  1.06  0.176 0.012 0.004 0.728   0.172
# 10 1.04  0.856      7.60 1.89  1.66  0.656 0.404 0.044 0.004 0.88    0.264
# # ... with 1,252 more rows, and 9 more variables: range <dbl>, size <dbl>,
# #   aspect <dbl>, elongation <dbl>, compactness <dbl>, transparency <dbl>,
# #   circularity <dbl>, density <dbl>, class <fct>

# Réduction du jeu de données 
(copepoda <- filter(zooplankton,
  class %in% c("Calanoïde", "Cyclopoïde",  "Harpacticoïde",  "Poecilostomatoïde")))

# # A tibble: 535 x 20
#      ecd  area perimeter feret major minor  mean  mode   min   max std_dev
#    <dbl> <dbl>     <dbl> <dbl> <dbl> <dbl> <dbl> <dbl> <dbl> <dbl>   <dbl>
#  1 0.770 0.465      4.45 1.32  1.16  0.509 0.363 0.036 0.004 0.908   0.231
#  2 0.815 0.521      4.15 1.33  1.11  0.598 0.308 0.032 0.008 0.696   0.204
#  3 0.785 0.484      4.44 1.78  1.56  0.394 0.332 0.036 0.004 0.728   0.218
#  4 0.361 0.103      1.71 0.739 0.694 0.188 0.153 0.016 0.008 0.452   0.110
#  5 0.832 0.544      5.27 1.66  1.36  0.511 0.371 0.02  0.004 0.844   0.268
#  6 1.23  1.20      15.7  3.92  1.37  1.11  0.217 0.012 0.004 0.784   0.214
#  7 0.620 0.302      3.98 1.19  1.04  0.370 0.316 0.012 0.004 0.756   0.246
#  8 1.19  1.12      15.3  3.85  1.34  1.06  0.176 0.012 0.004 0.728   0.172
#  9 1.04  0.856      7.60 1.89  1.66  0.656 0.404 0.044 0.004 0.88    0.264
# 10 0.725 0.412      7.14 1.90  0.802 0.655 0.209 0.008 0.004 0.732   0.202
# # ... with 525 more rows, and 9 more variables: range <dbl>, size <dbl>,
# #   aspect <dbl>, elongation <dbl>, compactness <dbl>, transparency <dbl>,
# #   circularity <dbl>, density <dbl>, class <fct>
…
Figure 2.2: Abondances de quatres types de copépodes dans un échantillon de zooplancton.

La fonction geom_bar() se charge d’ajouter les barres verticales dans le graphique. La hauteur de ces barres correspond au nombre d’observations rencontrées dans le jeu de données pour chaque niveau (ou classe, ou groupe) de la variable facteur représentée.

4.1.2 Effectifs par 2 facteurs

# Importation des données biometry
(biometry <- read("biometry", package = "BioDataScience", lang = "FR"))

# # A tibble: 395 x 7
#    gender day_birth  weight height wrist year_measure   age
#    <fct>  <date>      <dbl>  <dbl> <dbl>        <dbl> <dbl>
#  1 H      1995-03-11     69    182  15           2013    18
#  2 H      1998-04-03     74    190  16           2013    15
#  3 H      1967-04-04     83    185  17.5         2013    46
#  4 H      1994-02-10     60    175  15           2013    19
#  5 F      1990-12-02     48    167  14           2013    23
#  6 F      1994-07-15     52    179  14           2013    19
#  7 F      1971-03-03     72    167  15.5         2013    42
#  8 F      1997-06-24     74    180  16           2013    16
#  9 H      1972-10-26    110    189  19           2013    41
# 10 H      1945-03-15     82    160  18           2013    68
# # ... with 385 more rows
…
