Science des données biologiques, UMONS
…
Les éléments indispensables à la compréhension d’un nuage de points sont mis en évidence à la Fig. 2.1 :

Les axes avec les graduations (en rouge),

les labels et les unités des axes (en bleu).

Les instructions dans R pour produire un tel nuage de point sont :

# Chargement de SciViews::R
SciViews::R
# Importation du jeu de données
(urchin <- read("urchin_bio", package = "data.io", lang = "fr"))

# # A tibble: 421 x 19
#    origin diameter1 diameter2 height buoyant_weight weight solid_parts
#    <fct>      <dbl>     <dbl>  <dbl>          <dbl>  <dbl>       <dbl>
#  1 Fishe…       9.9      10.2    5               NA  0.522       0.478
#  2 Fishe…      10.5      10.6    5.7             NA  0.642       0.589
#  3 Fishe…      10.8      10.8    5.2             NA  0.734       0.677
#  4 Fishe…       9.6       9.3    4.6             NA  0.370       0.344
#  5 Fishe…      10.4      10.7    4.8             NA  0.610       0.559
#  6 Fishe…      10.5      11.1    5               NA  0.610       0.551
#  7 Fishe…      11        11      5.2             NA  0.672       0.605
#  8 Fishe…      11.1      11.2    5.7             NA  0.703       0.628
#  9 Fishe…       9.4       9.2    4.6             NA  0.413       0.375
# 10 Fishe…      10.1       9.5    4.7             NA  0.449       0.398
# # ... with 411 more rows, and 12 more variables: integuments <dbl>,
# #   dry_integuments <dbl>, digestive_tract <dbl>,
# #   dry_digestive_tract <dbl>, gonads <dbl>, dry_gonads <dbl>,
# #   skeleton <dbl>, lantern <dbl>, test <dbl>, spines <dbl>,
# #   maturity <int>, sex <fct>
…
