3.1 Histogramme | Science des données biologiques
…
Figure 3.1: Exemple d’histogramme montrant la distribution de la taille d’un échantillon de zooplancton.

Outre l’histogramme lui-même, représenté par des barres de hauteur équivalentes au nombre de fois que les observations ont été réalisées dans les différentes classes, les éléments suivants sont également indispensables à la compréhension du graphique (ici mis en évidence en couleur)

Les axes avec les graduations (en rouge). Su l’axe des abscisses, les classes de tailles, et sur l’axe des ordonnées, le nombre d’occurrence

les labels des axes et l’unité (pour l’axe des abscisses uniquement ici) (en bleu)

Les instructions dans R afin de produire un histogramme à l’aide de la fonction chart() sont :

# Importation du jeu de données
(zooplankton <- read("zooplankton", package = "data.io", lang = "FR"))

# # A tibble: 1,262 x 20
#      ecd  area perimeter feret major minor  mean  mode   min   max std_dev
#    <dbl> <dbl>     <dbl> <dbl> <dbl> <dbl> <dbl> <dbl> <dbl> <dbl>   <dbl>
#  1 0.770 0.465      4.45 1.32  1.16  0.509 0.363 0.036 0.004 0.908   0.231
#  2 0.700 0.385      2.32 0.728 0.713 0.688 0.361 0.492 0.024 0.676   0.183
#  3 0.815 0.521      4.15 1.33  1.11  0.598 0.308 0.032 0.008 0.696   0.204
#  4 0.785 0.484      4.44 1.78  1.56  0.394 0.332 0.036 0.004 0.728   0.218
#  5 0.361 0.103      1.71 0.739 0.694 0.188 0.153 0.016 0.008 0.452   0.110
#  6 0.832 0.544      5.27 1.66  1.36  0.511 0.371 0.02  0.004 0.844   0.268
#  7 1.23  1.20      15.7  3.92  1.37  1.11  0.217 0.012 0.004 0.784   0.214
#  8 0.620 0.302      3.98 1.19  1.04  0.370 0.316 0.012 0.004 0.756   0.246
#  9 1.19  1.12      15.3  3.85  1.34  1.06  0.176 0.012 0.004 0.728   0.172
# 10 1.04  0.856      7.60 1.89  1.66  0.656 0.404 0.044 0.004 0.88    0.264
# # … with 1,252 more rows, and 9 more variables: range <dbl>, size <dbl>,
# #   aspect <dbl>, elongation <dbl>, compactness <dbl>, transparency <dbl>,
# #   circularity <dbl>, density <dbl>, class <fct>
…
chart(data = DF, ~VARNUM) +
    geom_histogram(binwidth = 30)

L’argument binwidth = permet de préciser la largeur des classes. C’est une autre façon de spécifier le découpage en classes, mais vous pouvez naturellement le remplacer par l’argument bins = si vous préférez.

Vous avez à votre disposition un ensemble de snippets que vous pouvez retrouver dans l’aide-mémoire sur SciViews. N’oubliez pas que vous avez également à votre disposition l’aide-mémoire sur la visualisation des données (Data Visualization Cheat Sheet), via la fonction ggplot().

3.1.2 Histogramme par facteur

Lors de l’analyse de jeux de données, vous serez amené à réaliser un histogramme par facteur (c’est-à-dire, en fonction de différents niveaux d’une variable qualitative qui divise le jeu de données en sous-groupes). Par exemple, dans un jeu de données sur des fleurs d’iris, la variable species10 représente l’espèce d’iris étudiée (trois espèces différentes : I. setosa, I. versicolor et I. virginica).

# Importation du jeu de données
(iris <- read("iris", package = "datasets", lang = "fr"))

# # A tibble: 150 x 5
#    sepal_length sepal_width petal_length petal_width species
#           <dbl>       <dbl>        <dbl>       <dbl> <fct>  
#  1          5.1         3.5          1.4         0.2 setosa 
#  2          4.9         3            1.4         0.2 setosa 
#  3          4.7         3.2          1.3         0.2 setosa 
#  4          4.6         3.1          1.5         0.2 setosa 
#  5          5           3.6          1.4         0.2 setosa 
#  6          5.4         3.9          1.7         0.4 setosa 
#  7          4.6         3.4          1.4         0.3 setosa 
#  8          5           3.4          1.5         0.2 setosa 
#  9          4.4         2.9          1.4         0.2 setosa 
# 10          4.9         3.1          1.5         0.1 setosa 
# # … with 140 more rows
…
