…
# # A tibble: 6 x 3
#   treatment  dose response
#   <chr>     <dbl>    <dbl>
# 1 control     0.5     18.4
# 2 control     1       26.4
# 3 control     2       51.1
# 4 test        0.5     10.3
# 5 test        1       19.9
# 6 test        2       41.1

Dans la plupart des cas, vous utiliserez ou collecterez des données stockées dans des formats divers : feuilles Excel, fichiers CSV (“comma-separated-values”, un format standard d’encodage d’un tableau de données sous forme textuelle), formats spécifiques à divers logiciels statistiques comme SAS, Stata ou Systat, … Ces données peuvent être sur un disque local ou disponibles depuis un lien URL sur le net1. De nombreuses fonctions existent dans R pour importer toutes ces données. La fonction read() du package data.io est l’une des plus simples et conviviales d’entre-elles. Vous l’avez déjà utilisée, mais reprenons un exemple pour en discuter les détails.

(biometry <- read("biometry", package = "BioDataScience", lang = "fr"))

# # A tibble: 395 x 7
#    gender day_birth  weight height wrist year_measure   age
#    <fct>  <date>      <dbl>  <dbl> <dbl>        <dbl> <dbl>
#  1 M      1995-03-11     69    182  15           2013    18
#  2 M      1998-04-03     74    190  16           2013    15
#  3 M      1967-04-04     83    185  17.5         2013    46
#  4 M      1994-02-10     60    175  15           2013    19
#  5 W      1990-12-02     48    167  14           2013    23
#  6 W      1994-07-15     52    179  14           2013    19
#  7 W      1971-03-03     72    167  15.5         2013    42
#  8 W      1997-06-24     74    180  16           2013    16
#  9 M      1972-10-26    110    189  19           2013    41
# 10 M      1945-03-15     82    160  18           2013    68
# # ... with 385 more rows
…
L’impression du tableau de données est une façon de voir cela, mais il y en a bien d’autres : essayez View(biometry), str(biometry), ou cliquez sur la petite icône bleue avec une flèche devant biometry dans l’onglet Environnement.

Avant d’importer vos données dans R, vous devez vous poser les deux questions suivantes :

Où ces données sont stockées ?

Vous venez d’importer des données depuis un package R. Vous pouvez également les lire depuis un fichier sur le disque ou via une URL depuis le Web. Tous ces cas sont gérés par read() qui unifie donc de manière simple vos accès aux données.

Quels est le format de vos données ?

Souvent ce format est renseigné par l’extension du fichier. Par exemple .xlsx pour un Microsoft Excel ou .csv pour du “comma-separated-value”. Attention ! L’extension du fichier est cachée sous Windows, et parfois sous MacOS. Visualisez vos fichiers dans l’onglet Files dans RStudio pour voir leur nom complet, avec l’extension. Pour l’instant, read() supporte 32 formats de fichiers différents, mais cette liste est amenée à s’agrandir à l’avenir. Pour découvrir les formats supportés, et les fonctions d’importation spécifiques appelées à chaque fois, utilisez :

getOption("read_write")

# # A tibble: 32 x 5
#    type  read_fun      read_header    write_fun      comment              
#    <chr> <chr>         <chr>          <chr>          <chr>                
#  1 csv   readr::read_… data.io::hrea… readr::write_… comma separated valu…
#  2 csv2  readr::read_… data.io::hrea… <NA>           semicolon separated …
#  3 xlcsv readr::read_… data.io::hrea… readr::write_… write a CSV file mor…
#  4 tsv   readr::read_… data.io::hrea… readr::write_… tab separated values 
#  5 fwf   readr::read_… data.io::hrea… <NA>           fixed width file     
#  6 log   readr::read_… <NA>           <NA>           standard log file    
#  7 rds   readr::read_… <NA>           readr::write_… R data file (no comp…
#  8 txt   readr::read_… <NA>           readr::write_… text file (as length…
#  9 raw   readr::read_… <NA>           <NA>           binary file (read as…
# 10 ssv   readr::read_… data.io::hrea… <NA>           space separated valu…
# # ... with 22 more rows
…
# Parsed with column specification:
# cols(
#   localisation = col_character(),
#   species = col_character(),
#   id = col_integer(),
#   salinity = col_double(),
#   temperature = col_double(),
#   date = col_datetime(format = ""),
#   time = col_integer(),
#   gain = col_double(),
#   gain_std = col_double()
# )

# # A tibble: 98 x 9
#    localisation species    id salinity temperature date               
#    <chr>        <chr>   <int>    <dbl>       <dbl> <dttm>             
#  1 A0           s.hyst…     1     34.7        24.5 2018-04-24 09:10:00
#  2 A0           s.hyst…     2     34.7        24.5 2018-04-24 09:10:00
#  3 A0           s.hyst…     3     34.7        24.5 2018-04-24 09:10:00
#  4 A0           s.hyst…     4     34.7        24.5 2018-04-24 09:10:00
#  5 A0           s.hyst…     5     34.7        24.5 2018-04-24 09:10:00
#  6 A0           s.hyst…     6     34.7        24.5 2018-04-24 09:10:00
#  7 A0           s.hyst…     7     34.7        24.5 2018-04-24 09:10:00
#  8 A0           s.hyst…     8     34.7        24.5 2018-04-24 09:10:00
#  9 A0           s.hyst…     9     34.7        24.5 2018-04-24 09:10:00
# 10 A0           s.hyst…    10     34.7        24.5 2018-04-24 09:10:00
# # ... with 88 more rows, and 3 more variables: time <int>, gain <dbl>,
# #   gain_std <dbl>
…
