Science des données biologiques, UMONS
…
(timolol2 <- as_dataframe(timolol_table, n = "freq"))

# # A tibble: 4 x 3
#   patient traitement  freq
#   <chr>   <chr>      <dbl>
# 1 malade  placebo      128
# 2 sain    placebo       19
# 3 malade  timolol      116
# 4 sain    timolol       44

Si vous insistez, vous pouvez aussi obtenir un tableau cas par variables (mais celui-ci est très long et peu pratique à manipuler) à l’aide de la fonction uncount()2 :

uncount(timolol2, freq)

# # A tibble: 307 x 2
#    patient traitement
#    <chr>   <chr>     
#  1 malade  placebo   
#  2 malade  placebo   
#  3 malade  placebo   
#  4 malade  placebo   
#  5 malade  placebo   
#  6 malade  placebo   
#  7 malade  placebo   
#  8 malade  placebo   
#  9 malade  placebo   
# 10 malade  placebo   
# # ... with 297 more rows
…
