8.2 Test d’hypothèse | Science des données biologiques
…
Bec-croisés des sapins mâles montrant les deux variétés (bec croisé à gauche ou à droite). Photo : Elaine R. Wilson (license CC BY-SA 3.0).

Comme des individus à bec croisé à gauche et d’autres à bec croisé à droite se rencontrent dans la même population, Groth (1992) a comptabilisé les deux types dans un échantillon aléatoire et représentatif de plus de 3000 oiseaux. Il a obtenu le tableau suivant :

(crossbill <- tibble(cb = c(rep("left", 1895), rep("right", 1752))))

# # A tibble: 3,647 x 1
#    cb   
#    <chr>
#  1 left 
#  2 left 
#  3 left 
#  4 left 
#  5 left 
#  6 left 
#  7 left 
#  8 left 
#  9 left 
# 10 left 
# # … with 3,637 more rows
…
Si possible, aucun effectif observé inférieur à 5 (pas règle stricte, mais voir à utiliser un test exact de Fisher ci-dessous dans la section “pour en savoir plus” en base de page dans ce cas).

Example et résolution dans R

Prenons le jeu de données concernant le test d’une molécule potentiellement anti-cancéreuse, le timolol :

(timolol <- tibble(
  traitement = c(
    rep("timolol", 160), rep("placebo", 147)),
  patient = c(
    rep("sain", 44), rep("malade", 116), 
    rep("sain", 19), rep("malade", 128))
  ))

# # A tibble: 307 x 2
#    traitement patient
#    <chr>      <chr>  
#  1 timolol    sain   
#  2 timolol    sain   
#  3 timolol    sain   
#  4 timolol    sain   
#  5 timolol    sain   
#  6 timolol    sain   
#  7 timolol    sain   
#  8 timolol    sain   
#  9 timolol    sain   
# 10 timolol    sain   
# # … with 297 more rows
…
