5.2 Types de variables

Lors de la réalisation de graphiques dans les modules précédents vous avez compris que toutes les variables ne sont pas équivalentes. Certains graphiques sont plutôt destinés à des variables qualitatives (par exemple, graphique en barres), alors que d’autres représentent des données quantitatives comme le nuage de points.

(biometry <- read("biometry", package = "BioDataScience", lang = "fr"))

# # A tibble: 395 x 7
#    gender day_birth  weight height wrist year_measure   age
#    <fct>  <date>      <dbl>  <dbl> <dbl>        <dbl> <dbl>
#  1 M      1995-03-11     69    182  15           2013    18
#  2 M      1998-04-03     74    190  16           2013    15
#  3 M      1967-04-04     83    185  17.5         2013    46
#  4 M      1994-02-10     60    175  15           2013    19
#  5 W      1990-12-02     48    167  14           2013    23
#  6 W      1994-07-15     52    179  14           2013    19
#  7 W      1971-03-03     72    167  15.5         2013    42
#  8 W      1997-06-24     74    180  16           2013    16
#  9 M      1972-10-26    110    189  19           2013    41
# 10 M      1945-03-15     82    160  18           2013    68
# # ... with 385 more rows
…
